<svg id="svg1" xmlns="http://www.w3.org/2000/svg" width="600" height="600" viewBox="0 0 600 600">
 <style>
   
    .heavy { font: bold 70px sans-serif; }

  </style>
   <defs>
     <linearGradient id="grad" x2="0%" y2="100%" gradientUnits="userSpaceOnUse">
        <stop offset="0%" stop-color="#1E589A" />
        <stop offset="100%" stop-color="#7db9e8" />
     </linearGradient>
  </defs>
    
   <ellipse id="el" cx="300" cy="300" rx="200" ry="100" fill="#fff" stroke="white" stroke-width="70" stroke-dasharray="0,60" stroke-linecap="round"> 
         <animate id="an_e1" attributeName="rx" begin="svg1.click" dur="30s" values="200;250;200;200" fill="freeze" repeatCount="indefinite"/> 
    </ellipse>
    
      <ellipse id="an_e2" cx="300" cy="300" rx="200" ry="100" fill="#fff" stroke="white" stroke-width="100" stroke-dasharray="0,100" stroke-linecap="round">
            <animate attributeName="rx"  dur="6s" values="200;150;200;200"  repeatCount="indefinite" /> 
      </ellipse>  
    <text x="160" y="330" font-size="12px" fill="black" class="heavy" ></text>        
</svg>