  <svg xmlns="http://www.w3.org/2000/svg" viewBox="0 0 5000 2950"><defs><style>.cls-1{stroke:none;stroke-miterlimit:10;}</style></defs><title></title><g id="Calque_2" data-name="Calque 2"><g id="Calque_1-2" data-name="Calque 1">



  

  <path id="links" class="cls-1" d="M3048.77 988.59l110.91 221.09c-38.79,44.21 -96.37,80.45 -172.73,108.7 -75.16,27.02 -155.77,40.53 -241.83,40.53 -197.58,0 -358.19,-60.8 -481.83,-182.4 -123.64,-124.05 -185.47,-285.56 -185.47,-484.54 0,-194.06 58.19,-353.73 174.55,-479.02 116.37,-125.28 280.02,-187.92 490.93,-187.92 80.01,0 154.55,12.29 223.64,36.85 69.1,24.56 124.25,57.11 165.47,97.65l-129.1 221.08c-84.85,-52.81 -171.52,-79.22 -260.01,-79.22 -103.03,0 -188.49,34.39 -256.37,103.17 -66.67,67.55 -100,163.36 -100,287.41 0,113 35.75,206.96 107.27,281.88 71.52,72.47 164.25,108.7 278.19,108.7 101.82,0 193.95,-31.32 276.38,-93.96z


  M121.55 2864.23l-104.49 0 188.87 -460.37 92.82 0 188.87 460.37 -110.99 0 -37.65 -96.68 -179.78 0 -37.65 96.68zm178.49 -195.33l-50.62 -130.22 -51.28 130.22 101.9 0z

 M823.83,2864.23 719.98,2864.23 719.98,2403.86 823.83,2403.86 823.83,2604.45 972.46,2403.86 1097.09,2403.86 926.38,2616.29 1110.72,2864.23 978.95,2864.23 823.83,2645.23


  M1389.15 2864.23l-104.49 0 188.87 -460.37 92.82 0 188.88 460.37 -110.99 0 -37.65 -96.68 -179.79 0 -37.65 96.68zm178.5 -195.33l-50.62 -130.22 -51.28 130.22 101.9 0z

  M2033.02 2943.15l-97.36 0 0 -177.57 48.68 0c12.98,-17.54 26.18,-49.76 39.59,-96.68 13.85,-47.79 22.5,-105.44 25.97,-172.97l3.89 -92.07 296.62 0 0 361.72 61.66 0 0 177.57 -97.36 0 0 -78.92 -281.69 0 0 78.92zm121.37 -440.64l-7.13 77.61c-3.03,36.83 -9.96,74.53 -20.78,113.12 -10.38,37.26 -19.69,61.38 -27.91,72.34l147.99 0 0 -263.07 -92.17 0z

  M2933.26,2864.23 2657.41,2864.23 2657.41,2403.86 2926.77,2403.86 2926.77,2502.51 2761.26,2502.51 2761.26,2583.4 2907.29,2583.4 2907.29,2682.06 2761.26,2682.06 2761.26,2765.58 2933.26,2765.58



  M3308.41,2864.23 3204.56,2864.23 3204.56,2403.86 3309.06,2403.86 3449.25,2597.87 3581.67,2403.86 3679.67,2403.86 3679.67,2864.23 3575.82,2864.23 3575.82,2570.91 3449.25,2750.45 3434.33,2750.45 3308.41,2572.88
  M4262.53,2578.14 4061.31,2864.23 3970.45,2864.23 3970.45,2403.86 4074.3,2403.86 4074.3,2689.95 4275.51,2403.86 4366.38,2403.86 4366.38,2864.23 4262.53,2864.23
 M4957.66 2864.23l-103.85 0 0 -147.98 -46.08 0 -86.32 147.98 -116.18 0 106.44 -170.99c-46.73,-28.06 -70.09,-69.94 -70.09,-125.62 0,-47.79 16,-87.47 48.02,-119.04 31.59,-31.57 80.7,-47.35 147.34,-47.35 3.02,0 7.14,0.11 12.33,0.33 5.19,0.22 12.66,0.44 22.39,0.66 9.75,0.22 18.5,0.33 26.3,0.33 8.22,0 17.08,0.11 26.6,0.32 9.53,0.22 16.77,0.44 21.74,0.66 4.98,0.22 8.77,0.33 11.36,0.33l0 460.37zm-158.37 -246.63l54.52 0 0 -115.09c-7.35,-1.75 -19.89,-2.63 -37.64,-2.63 -18.18,0 -33.43,5.59 -45.76,16.77 -12.33,11.18 -18.5,25.76 -18.5,43.74 0,15.34 4.33,27.95 12.98,37.81 8.66,9.87 20.12,16.33 34.4,19.4z
  M3746.29,337.41 3364.45,337.41 3364.45,61.05 4419.04,61.05 4419.04,337.41 4037.21,337.41 4037.21,1350.71 3746.29,1350.71
  M1250.84 913.46l0 438.48 -290.92 0 0 -1289.66c55.76,0 116.98,-0.61 183.65,-1.84 67.88,-1.23 136.37,-1.84 205.46,-1.84 179.4,0 310.31,40.53 392.74,121.59 81.21,78.61 121.82,180.55 121.82,305.84 0,120.36 -43.02,222.92 -129.09,307.67 -86.06,83.52 -200.01,125.28 -341.83,125.28 -63.03,0 -110.3,-1.84 -141.83,-5.52zm127.29 -578.51c-1.22,0 -6.68,0.31 -16.37,0.92 -9.7,0.62 -24.85,1.23 -45.45,1.85 -20.61,0.61 -42.43,0.92 -65.47,0.92l0 294.78c50.92,6.14 95.16,9.21 132.74,9.21 49.69,0 90.61,-13.21 122.73,-39.61 32.12,-26.41 48.19,-66.02 48.19,-118.84 0,-99.48 -58.79,-149.23 -176.37,-149.23z



  M63.4,63 h280.85 v2171.72 h-280.85z



	 M3752.99,1575.17 h280.85 v658.1 h-280.85z



	 M2813.71,1575.17 h280.85 v658.1 h-280.85z



	 M1878.45,1575.17 h280.85 v658.1 h-280.85z



	M956.19,1575.17 h280.85 v658.1 h-280.85z


	  M4673.7,63 h280.85 v2171.72 h-280.85z">
	  
	  
	  <animate dur="1s" values="#A5AE01; #A5AE71; #A5AE01" keyTimes="0; 0.3; 1" attributeName="fill" repeatCount="indefinite" begin="0.1"/>
	  
</path>
	  

    </g></g></svg>
      